
##BranchEnd 0
##BranchStart 1
yingshi_start_1 = {
	slot = 2
	generic = no
	ai = yes
	potential = {
		tag = Y10
	}
	has_country_shield = yes
	
	##Mission Start
	yingshi_a_keeper_of_secrets = {
		icon = mission_dark_book
		required_missions = {
			yingshi_lies_and_slander
		}
		position = 2

		
		trigger = {
			spymaster = 1
		
		}
		effect = {
			add_government_reform = sinistral_chamber_reform
			ROOT = {
				country_event = { 
				id = yingshi.4
				}
			}
		}
	}
	##Mission End
	##Mission Start
	yingshi_oni_overture = {
		icon = mission_oni
		required_missions = {
			yingshi_a_keeper_of_secrets
		}
		position = 3

		trigger = {
			OR = {
				Y01 = {
					AND = {
					has_opinion = {
						who = ROOT	
						value = 0
						}
					is_at_war = no
					}
				}
				NOT = { exists = Y01 }
				}
		}
		effect = {
			if = {
				limit = {
					exists = Y01
					}
					
				Y01 = {
					country_event = {
						id = yingshi.5
						}
					}
				}
				
			else = {
				add_country_modifier = {
					name = yingshi_oni_knowledge
					duration = 9125
				}
			}
		}
	}
	##Mission End
	##Mission Start
	yingshi_fulfill_the_contract = {
		icon = mission_assassination
		required_missions = {
			yingshi_oni_overture
		}
		position = 4
		provinces_to_highlight = {
			##PROVINCESHIGHLIGHTCODE
		}
		trigger = {
		
			OR = {
			any_country = {
				AND = {
					is_rival = Y01
					has_spy_network_from = {
						who = ROOT
						value = 60
						}
					}
				}
			NOT = { exists = Y01 }
				
			}	
		}
		effect = {
			if = {
				limit = {
					exists = Y01
					}
			ROOT = {
				country_event = {
					id = yingshi.7
						}
					}
		hidden_effect = {
			random_country = {
				limit = {
					AND = {
						is_rival = Y01
						has_spy_network_from = {
							who = ROOT
							value = 60
						}
					}
				}
			
			country_event = {
				id = yingshi.8
					}	
				}
			}
		}
	}
}
	##Mission End
	##Mission Start
	ying_best_things = {
		icon = mission_crowning
		required_missions = {
			yingshi_fulfill_the_contract yingshi_corrupt_the_patrol yingshi_a_shield_against_zealots
		}
		position = 5
		provinces_to_highlight = {

				
		}
		trigger = {
			any_rival_country = {
				has_spy_network_from = {
					who = ROOT
					value = 100 }
							}
						
		}
		effect = {
			hidden_effect = {
						random_rival_country = {
							limit = {
								has_spy_network_from = {
								who = ROOT
								value = 100 
								}
							}
							country_event = {
								id = yingshi.11
								days = 3
							}
						}			
				}	
			country_event = {
				id = yingshi.10
				}
			custom_tooltip = y10_assassin_events_tooltip
			hidden_effect = {
				set_country_flag = allow_yingshi_events
			}
		}
	}
	##Mission End
	##
	
}
##BranchEnd 1
##BranchStart 2
yingshi_start_2 = {
	slot = 3
	generic = no
	ai = yes
	potential = {
		tag = Y10
	}
	has_country_shield = yes
	
	##Mission Start
	yingshi_lies_and_slander = {
		icon = mission_missive
		required_missions = {
			
		}
		position = 1

		trigger = {
			OR = {
				AND = {
			
				has_spy_network_in = {
					who = Y02
					value = 40
					}
				Y01 = {
					exists = yes
					}
				}
				
				AND = {
					Y02 = {
						exists = no
					}
					owns_core_province = 4851
				}
			}
		}
		effect = {
			if = {
				limit = {
					AND = {
					
					Y02 = {
						exists = yes
					}
					
					# Y01 = {
						# exists = yes
					# }
				}
			}
				ROOT = {
					country_event = {
						id = yingshi.1
					}
				}

			}
			jiangszun_area = { add_permanent_claim = ROOT }
			4952 = { add_permanent_claim = ROOT }
			
			add_spy_network_in = {
					who = Y02
					value = -40
				}
			
			
		}
	}

	##Mission End
	##Mission Start
	yingshi_never_saw_it_coming = {
		icon = mission_whisper
		required_missions = {
			yingshi_lies_and_slander
		}
		position = 2
		provinces_to_highlight = {
			##PROVINCESHIGHLIGHTCODE
		}
		trigger = {
			OR = {
				AND = {
			
				has_spy_network_in = {
					who = Y04
					value = 50
					}
				church_power = 75
		}
				
				AND = {
					Y04 = {
						exists = no
					}
					owns_core_province = 4853
					owns_core_province = 4933
					owns_core_province = 4854
			}
		}
	}
		
		effect = {
				ROOT = {
					country_event = {
						id = yingshi.9
					}
				}
				4933 = { add_permanent_claim = ROOT }
				4853 = { add_permanent_claim = ROOT }
				4854 = { add_permanent_claim = ROOT }
				
				add_spy_network_in = {
					who = Y04
					value = -50
				}
		}
}
	##Mission End
	##Mission Start
	yingshi_steal_the_vote = {
		icon = mission_writing_book
		required_missions = {
			yingshi_never_saw_it_coming yingshi_a_keeper_of_secrets
		}
		position = 3
		provinces_to_highlight = {
			##PROVINCESHIGHLIGHTCODE
		}
		trigger = {
		
			OR = {
				AND = {
				has_spy_network_in = {
					who = Y06
					value = 60
					}
				treasury = 150
					}
				
				owns_core_province = 4861
				}
		}
		effect = {
			country_event = { 
				id = yingshi.15	
						}
			add_treasury = -150
						
			add_spy_network_in = {
					who = Y06
					value = -60
				}			
			
			hidden_effect = {
				country_event = {
					id = yingshi.18
					days = 360
						}
			}
		}
	}
	##Mission End
	##Mission Start
	yingshi_corrupt_the_patrol = {
		icon = mission_city_prosperity
		required_missions = {
			yingshi_steal_the_vote
		}
		position = 4
		provinces_to_highlight = {
			##PROVINCESHIGHLIGHTCODE
		}
		trigger = {
			OR = {
				AND = {
					has_spy_network_in = {
						who = Y08
						value = 70
						}
					manpower = 5
				}
				AND = { 
					Y08 = {
						exists = no
					}
				}
			}			
		}
		effect = {
			if = {
				limit = { Y08 = { exists = yes } }
			
				country_event = { 
					id = yingshi.19
				}
				add_manpower = -5
			
				add_spy_network_in = {
						who = Y08
						value = -50
				}
			}
			else = { 
				4855 = { add_permanent_claim = ROOT }
				4859 = { add_permanent_claim = ROOT }
			}
				
		}
	}
	##Mission End
	##
	
}
##BranchEnd 2
##BranchStart 3
yingshi_start_3 = {
	slot = 4
	generic = no
	ai = yes
	potential = {
		tag = Y10
	}
	has_country_shield = yes
	

	##Mission Start
	yingshi_taking_it_back = {
		icon = mission_asian_city
		required_missions = {
			yingshi_lies_and_slander
		}
		position = 2
		provinces_to_highlight = {
			OR = {
				province_id = 4952
				area = jiangszun_area
			}
			NOT = {
				owned_by = ROOT
			}
		}
		trigger = {
			AND = {
				4952 = { owned_by = ROOT }
				jiangszun_area = { 
					type = all
					owned_by = ROOT 
				}
			}
		}
		effect = {
			bianfang_area = { add_permanent_claim = ROOT }
			bianyuan_area = { add_permanent_claim = ROOT }
		}
	}
	##Mission End
	##Mission Start
	yingshi_break_the_fang = {
		icon = mission_destroyed_city
		required_missions = {
			yingshi_taking_it_back
		}
		position = 3
		provinces_to_highlight = {
			OR = {
				area = bianyuan_area
				area = bianfang_area
			}
			NOT = {
				owned_by = ROOT
			}
		}

		trigger = {
			AND = {
				bianyuan_area = { 
					type = all
					owned_by = ROOT 
				}
				bianfang_area = { 
					type = all
					owned_by = ROOT 
				}
		}
	}
		effect = {
			4826 = {
				add_base_tax = -3
				add_base_production = -3
				add_base_manpower = -3
				}
			4842 = {
				add_base_tax = -3
				add_base_production = -3
				add_base_manpower = -3
				}
			4849 = {
				add_base_tax = 4
				add_base_production = 4
				add_base_manpower = 4
				}
		}
	}
	##Mission End
	##Mission Start
	yingshi_a_shield_against_zealots = {
		icon = mission_burning_parthenon
		required_missions = {
			yingshi_break_the_fang
		}
		position = 4
		provinces_to_highlight = {

		}
		trigger = {
			4826 = { 
				owned_by = ROOT
				OR = {
					has_building = fort_15th
					has_building = fort_16th
					has_building = fort_17th
					has_building = fort_18th
					}
				has_building = barracks
				}
			
		}
		effect = {
			4826 = {
				add_building_construction = {
					building = ramparts
					speed = 1
					cost = 0.5
				}
			}
			
			add_country_modifier = {
				name = yingshi_shield
				duration = 9125
			}
		}
	}
	##Mission End
	##
	
}
##BranchEnd 3
##BranchStart 4 Post-Unification Left Side
yingshi_unified_1 = {
	slot = 1
	generic = no
	ai = yes
	potential = {
		tag = Y10
		has_country_flag = yanszin_unification
	}
	has_country_shield = yes
	
	yingshi_appeasement = {
		icon = mission_dual_diplomacy
		required_missions = {
		}
		position = 6
		provinces_to_highlight = {
			province_group = original_yanszin #Starting Yanszin Provinces
			NOT = { development = 15 }
		}
		trigger = {
			original_yanszin = {
				type = all
				owned_by = ROOT
				development = 15
			}
		}
		effect = {
			original_yanszin = {
				add_nationalism = -5 
				add_province_modifier = {
					name = yingshi_appeasement
					duration = 7300
				}
			}
		}
	}
	
	yingshi_benevolence = {
		icon = mission_marriage
		required_missions = {	
			yingshi_appeasement
			yingshi_wayward_city
		}
		position = 8
		provinces_to_highlight = {
			OR = {
				province_group = original_yanszin
				area = tianszi_area
			}
			unrest = 0
		}
		trigger = {
			original_yanszin = { #Starting Yanszin Provinces
				type = all
				NOT = { unrest = 0 }
			}
			tianszi_area = {
				NOT = { unrest = 0 }
			}
		}
		effect = {
			original_yanszin = {
				add_devastation = -30
				add_prosperity = 30
			}
			tianszi_area = {
				add_devastation = -30
				add_prosperity = 30
				
			}
		}
	}
	
	yingshi_counter_counter = {
		icon = mission_missive
		required_missions = {
			yingshi_assassins_creed
		}
		position = 13
		provinces_to_highlight = {

		}
		trigger = {
			has_country_flag = yingshi_spymaster_ruler
			has_institution = manufactories
			has_estate_privilege = artifice_invention_research_privilege

		}
		effect = {
			add_country_modifier = {
				name = yingshi_counter
				duration = 7300
			}
		}
	}
	
	yingshi_trade_secrets = {
		icon = mission_whisper
		required_missions = {
			yingshi_counter_counter
		}
		position = 14
		provinces_to_highlight = {

		}
		trigger = {
			any_known_country = {
				culture_group = gnomish
				has_spy_network_from = {
					who = ROOT
					value = 75
				}
			}
				

		}
		effect = {
			country_event = {
				id = yingshi.42
			}
		}
	}
	
	yingshi_tools_trade = {
		icon = mission_science
		required_missions = {
			yingshi_trade_secrets
		}
		position = 16
		provinces_to_highlight = {

		}
		trigger = {
			treasury = 500
			estate_loyalty = {
					estate = estate_artificers
					loyalty = 60
				}
			estate_influence = {
					estate = estate_artificers
					influence = 40
				}
			has_estate_privilege = estate_artificers_organization_state

		}
		effect = {
			add_treasury = -500
			custom_tooltip = y10_toolstrade_tooltip

		}
	}
	
}
yingshi_unified_2 = {
	slot = 2
	generic = no
	ai = yes
	potential = {
		tag = Y10
		has_country_flag = yanszin_unification
	}
	has_country_shield = yes
	
	yingshi_wayward_city = {
		icon = mission_green_village
		required_missions = {
			yingshi_secure_league
		}
		position = 7
		provinces_to_highlight = {
			area = tianszi_area
			NOT = { owned_by = ROOT }
		}
		trigger = {
			tianszi_area = {
				type = all	
				owned_by = ROOT
			}
		}
		effect = {
			country_event = {
			id = yingshi.41
			}
		}
	}
	
	yingshi_hand_feeds = {
		icon = mission_feast
		required_missions = {
			yingshi_benevolence
			yingshi_master_river			
		}
		position = 9
		provinces_to_highlight = {

		}
		trigger = {
			church_power = 100
			custom_trigger_tooltip = {
				tooltip = y10_plant_growth_tooltip
				any_owned_province = {
					OR = {
						has_province_modifier = magic_realm_transmutation_plant_growth_1
						has_province_modifier = magic_realm_transmutation_plant_growth_2
						has_province_modifier = magic_realm_transmutation_plant_growth_3
					}
				}
			}
		}
		effect = {
			add_country_modifier = {
				name = yingshi_hand_feeds	
				duration = 9125
			}
		}
	}
	
	yingshi_quelled_country = {
		icon = mission_big_house
		required_missions = {
			yingshi_secure_heartland
			
		}
		position = 11
		provinces_to_highlight = {

		}
		trigger = {
			religious_unity = 0.80
			NOT = { average_unrest = 0 }

		}
		effect = {
			add_country_modifier = {
				name = yingshi_quelled
				duration = 10950
			}
			4849 = { add_center_of_trade_level = 1 }

		}
	}
	
	yingshi_best_defense = {
		icon = mission_armor_choice
		required_missions = {
			yingshi_assassins_creed
		}
		position = 13
		provinces_to_highlight = {
			province_id = 4849
		}
		trigger = {
			has_country_flag = yingshi_assassin_ruler
			4849 = { has_fort_building_trigger = yes }
			num_of_owned_provinces_with = {
				value = 5
				has_fort_building_trigger = yes
			}
		}
		effect = {
			4849 = {
				add_province_modifier = {
					name = yingshi_best_defense_modifier
					duration = -1
				}
			}	
		}
	}
	
	yingshi_nothing_true = {
		icon = mission_shady_encounter
		required_missions = {
			yingshi_best_defense
		}
		position = 15
		provinces_to_highlight = {

		}
		trigger = {
			university = 5
		}
		effect = {
			if = {
				limit = {
					has_ruler_flag = yingshi_first_assassin
				}
				add_country_modifier = {
					name = yingshi_nothing_true
					duration = -1
				}
			}
			else = {
				add_country_modifier = {
					name = yingshi_nothing_true
					duration = 25
				}
			}
		}
	}
	
	yingshi_everything_permitted = {
		icon = mission_murder
		required_missions = {
			yingshi_nothing_true
		}
		position = 16
		provinces_to_highlight = {

		}
		trigger = {
			calc_true_if = {
				all_country = {
					has_spy_network_from = {
						who = ROOT
						value = 75
					}
				}
				amount = 3
			}

		}
		effect = {
		
			custom_tooltip = y10_permitted_tooltip
			add_prestige = 30
		}
		
	}
		
	
}

yingshi_unified_3 = {
	slot = 3
	generic = no
	ai = yes
	potential = {
		tag = Y10
		has_country_flag = yanszin_unification
	}
	has_country_shield = yes
	
	yingshi_secure_league = {
		icon = mission_guarded_market
		required_missions = {
			
		}
		position = 6
		provinces_to_highlight = {
			province_group = original_yanszin #Starting Yanszin Provinces
			NOT = {
				owned_by = ROOT
			}
		}
		
		trigger = {
			original_yanszin = {
				type = all
				is_core = ROOT
			}
		}
		effect = {
			jinqiu_area = {
				add_permanent_claim = ROOT
			}
			balrijin_area = {
				add_permanent_claim = ROOT
			}
			tianszi_area = {
				add_permanent_claim = ROOT
			}

		}
	}	
	
	yingshi_scale_sale = {
		icon = mission_treasure_room
		required_missions = {
			yingshi_secure_league
		}
		position = 7
		provinces_to_highlight = {
			OR = {
				province_id = 4856 #Irrinuaz
				province_id = 4976 #Balrisen
			}
			NOT = { 
				owned_by = ROOT
			}
		}
		trigger = {
			4856 = { owned_by = ROOT }
			4976 = { owned_by = ROOT }
		}
		effect = {
			country_event = {
				id = yingshi.40
			}
		}
	}	
	
	yingshi_master_river = {
		icon = mission_tree_fishing
		required_missions = {
			yingshi_wayward_city
			
		}
		position = 8
		provinces_to_highlight = {

		}
		trigger = {
			custom_trigger_tooltip = {
				tooltip = y10_master_river_tooltip
				NOT = {
					any_known_country = {
						capital_scope = {
							region = upper_yanshen_region
						}
						total_development = ROOT
					}
				}
			}
		}
		effect = {
			upper_yanshen_region = {
				limit = { NOT = { owned_by = ROOT } }
				add_permanent_claim = ROOT
			}
			wanglam_area = {
				limit = { NOT = { owned_by = ROOT } }
				add_permanent_claim = ROOT
			}
			hungngon_area = {
				limit = { NOT = { owned_by = ROOT } }
				add_permanent_claim = ROOT
			}
			4849 = { center_of_trade = 1 }
		}
	}	
	
	yingshi_secure_heartland = {
		icon = restore_great_moravia
		required_missions = {
			yingshi_hand_feeds
			yingshi_dark_brotherhood
		}
		position = 10
		provinces_to_highlight = {
			region = upper_yanshen_region
			NOT = { owned_by = ROOT }
		}
		trigger = {
			upper_yanshen_region = {
				type = all
				owned_by = ROOT
			}
		}
		effect = {
			4849 = {
				add_base_manpower = 2
				add_base_production = 2
				add_base_tax = 2
			}

		}
	}	
	
	yingshi_expand_reach = {
		icon = mission_chinese_general_riding
		required_missions = {
			yingshi_secure_heartland
			
		}
		position = 11
		provinces_to_highlight = {

		}
		trigger = {
			any_owned_province = {
				has_port = yes
			}
		}
		effect = {
			add_country_modifier = {
				name = yingshi_agents_abroad
				duration = -1
			}
			add_country_modifier = {
				name = yingshi_to_sea
				duration = 9125
			}

		}
	}	
	
	yingshi_assassins_creed = {
		icon = mission_assassination
		required_missions = {
			yingshi_expand_reach
			yingshi_quelled_country
			yingshi_sinistral_respite
		}
		position = 12
		provinces_to_highlight = {

		}
		trigger = {
			NOT = { republican_tradition = 50 }
		}
		effect = {
			add_government_reform = sinistral_republic_reform
			country_event = { id = yingshi.49 }

		}
	}	
	
	yingshi_came_darkness = {
		icon = mission_warrior_gold
		required_missions = {
			yingshi_assassins_creed
		}
		position = 13
		provinces_to_highlight = {

		}
		trigger = {
			OR = {
				army_tradition = 40
				army_professionalism = 0.4
			}

		}
		effect = {
			aoshan_area = {
				limit = { NOT = { owned_by = ROOT } }
				add_permanent_claim = ROOT
			}
			wangqiu_area = {
				limit = { NOT = { owned_by = ROOT } }
				add_permanent_claim = ROOT
			}
			tietyuan_area = {
				limit = { NOT = { owned_by = ROOT } }
				add_permanent_claim = ROOT
			}

		}
	}	
	
	yingshi_natural_enemy = {
		icon = mission_burning_castle
		required_missions = {
			yingshi_came_darkness
		}
		position = 14
		provinces_to_highlight = {
			OR = {
				area = aoshan_area
				area = wangqiu_area
				area = tietyuan_area
			}
			NOT = { owned_by = ROOT }
		}
		trigger = {
			num_of_owned_provinces_with = {
				value = 6
				OR = {
					area = aoshan_area
					area = wangqiu_area
					area = tietyuan_area
				}
			}
		}
		effect = {
			erluxi_area = {
				limit = { NOT = { owned_by = ROOT } }
				add_permanent_claim = ROOT
			}
			4868 = { add_permanent_claim = ROOT }
		}
	}	
	
	yingshi_down_river = {
		icon = mission_burning_separation
		required_missions = {
			yingshi_natural_enemy
		}
		position = 15
		provinces_to_highlight = {
			province_id = 4868
		}
		trigger = {
			4868 = { owned_by = ROOT }
		}
		effect = {
			ningxiang_area = {
				limit = { NOT = { owned_by = ROOT } }
				add_permanent_claim = ROOT
			}
			liuminxiang_area = {
				limit = { NOT = { owned_by = ROOT } }
				add_permanent_claim = ROOT
			}
		}
	}	
	
	yingshi_granary = {
		icon = mission_big_house
		required_missions = {
			yingshi_down_river
		}
		position = 16
		provinces_to_highlight = {
			OR = {
				area = ningxiang_area
				area = liuminxiang_area
			}
			NOT = { owned_by = ROOT }

		}
		trigger = {
			ningxiang_area = {
				type = all
				owned_by = ROOT
			}
			liuminxiang_area = {
				type = all
				owned_by = ROOT
			}

		}
		effect = {
			add_country_modifier = {
				name = yingshi_yan_granary
				duration = -1
			}
			gungi_area = {
				limit = { NOT = { owned_by = ROOT } }
				add_permanent_claim = ROOT
			}
			xiyun_area = {
				limit = { NOT = { owned_by = ROOT } }
				add_permanent_claim = ROOT
			}

		}
	}	
	
	yingshi_nobody_safe = {
		icon = mission_three_death
		required_missions = {
			yingshi_tools_trade
			yingshi_everything_permitted
			yingshi_granary
			yingshi_block_river
			yingshi_protectors_path
		}
		position = 17
		provinces_to_highlight = {

		}
		trigger = {	
			if = {
				limit = {
					great_power_rank = 1
				}
				any_country = {
					great_power_rank = 2
					has_spy_network_from = {
						who = ROOT
						value = 100
					}
				}
			}
			else = {
				any_country = {
					great_power_rank = 1
					has_spy_network_from = {
						who = ROOT
						value = 100
					}
				}
			}

		}
		effect = {
			country_event = { id = yingshi.47 }
			add_country_modifier = {
				name = yingshi_fear_of_emperors
				duration = -1
			}
			add_power_projection = {
                type = mission_rewards_power_projection
                amount = 100
            }
			lower_yanshen_region = {
				limit = { NOT = { owned_by = ROOT } }
				add_permanent_claim = ROOT
			}
			north_yanshen_region = {
				limit = { NOT = { owned_by = ROOT } }
				add_permanent_claim = ROOT
			}
			custom_tooltip = y10_allow_assassin

		}
	}	
}


yingshi_unified_4 = {
	slot = 4
	generic = no
	ai = yes
	potential = {
		tag = Y10
		has_country_flag = yanszin_unification
	}
	has_country_shield = yes
	
	yingshi_without_mercy = {
		icon = mission_burning_man
		required_missions = {
			yingshi_secure_league
		}
		position = 7
		provinces_to_highlight = {
			OR = {
				area = jinqiu_area
				province_id = 4975
				province_id = 4852
			}
		}
		trigger = {
			jinqiu_area = { 
				OR = {
					owned_by = ROOT
					owned_by = Y01
				}
			}
			4975 = { 
				OR = {
					owned_by = ROOT
					owned_by = Y01
				}
			}
			4852 = { 
				OR = {
					owned_by = ROOT
					owned_by = Y01
				}
			}
		}
		effect = {
			jinqiu_area = {
				add_base_tax = -1
				add_base_production = -1
				add_base_manpower = -1
				add_devastation = 40
			}
			4975 = {
				add_base_tax = -1
				add_base_production = -1
				add_base_manpower = -1
				add_devastation = 40
			}
			4852 = {
				add_base_tax = -1
				add_base_production = -1
				add_base_manpower = -1
				add_devastation = 40
			}
			4849 = {
				add_base_tax = 4
				add_base_production = 4
				add_base_manpower = 4
			}
		}
	}	
	
	yingshi_dark_brotherhood = {
		icon = mission_shady_encounter
		required_missions = {
			yingshi_northern_support
		}
		position = 9
		provinces_to_highlight = {

		}
		trigger = {
			OR = {
				AND = {
					army_size = Y01 #Azjakuma
					total_development = Y01
				}
				NOT = { exists = Y01 }
			}
		}
		effect = {
			country_event = { id = yingshi.43 }
			4849 = { #Yingshi
				add_ogre_minority_size_effect = yes
			}
			random_owned_province = {
				add_ogre_minority_size_effect = yes
			}
			random_owned_province = {
				add_ogre_minority_size_effect = yes
			}
			random_owned_province = {
				add_ogre_minority_size_effect = yes
			}
			medium_increase_of_ogre_tolerance_effect = yes
			

		}
	}	
	
	yingshi_sinistral_respite = {
		icon = mission_pray_light
		required_missions = {
			yingshi_secure_heartland
		}
		position = 11
		provinces_to_highlight = {
			province_id = 4849
		}
		trigger = {
			4849 = { has_tax_building_trigger = yes }
			treasury = 250

		}
		effect = {
			add_treasury = -250
			4849 = {
				add_province_modifier = {
					name = yingshi_sinistral_respite
					duration = -1
				}
				add_ogre_minority_size_effect = yes
			}

		}
	}	
	
	yingshi_two_ports = {
		icon = mission_establish_high_seas_navy
		required_missions = {
			yingshi_assassins_creed
		}
		position = 13
		provinces_to_highlight = {
			province_id = 4871

		}
		trigger = {
			has_country_flag = yingshi_trafficker_ruler
			4871 = { 
				trade_share = {
					country = ROOT
					share = 15
				}
			}

		}
		effect = {
			add_country_modifier = {
				name = yingshi_control_trade
				duration = 9125
			}

		}
	}	
	
	yingshi_vices = {
		icon = mission_dancing_with_dead
		required_missions = {
			yingshi_two_ports
		}
		position = 14
		provinces_to_highlight = {
			province_id = 4849
		}
		trigger = {
			4849 = {
				has_manufactory_trigger = yes
				has_trade_building_trigger = yes
				has_production_building_trigger = yes
				development = 35
			}
		}
		effect = {
			4849 = {
				add_center_of_trade_level = 1
			}
		}
	}	
	
	yingshi_better_option = {
		icon = mission_city_prosperity
		required_missions = {
			yingshi_vices
		}
		position = 15
		provinces_to_highlight = {
			province_id = 4871

		}
		trigger = {
			OR = {
				4871 = {
					owner = {
						has_spy_network_from = {
							who = ROOT
							value = 75
						}
						has_country_modifier = merchants_slandered
					}
					has_privateer_share_in_trade_node = {
						who = ROOT
						share = 25
					}
				}
				4871 = { owned_by = ROOT }
			}
		}
		effect = {
			if = {
				limit = { has_ruler_flag = yingshi_first_trafficker }
				4871 = {
					add_trade_modifier = {
						who = ROOT
						duration = -1
						power = 50
						key = yingshi_better_option
					}
				}
				add_country_modifier = {
					name = yingshi_better_option_modifier
					duration = -1
				}
			}
			else = {
				4871 = {
					add_trade_modifier = {
						who = ROOT
						duration = 10950
						power = 50
						key = yingshi_better_option
					}
				}
				add_country_modifier = {
					name = yingshi_better_option_modifier
					duration = 30
				}			
			}
		}
	}	
	
	yingshi_block_river = {
		icon = mission_rb_cod_wars
		required_missions = {
			yingshi_better_option
		}
		position = 16
		provinces_to_highlight = {
			province_group = golden_highway_upper_yanshen

		}
		trigger = {
			golden_highway_upper_yanshen = {
				type = all
				has_province_modifier = golden_highway
			}
			calc_true_if = {
				all_owned_province = {
					province_group = golden_highway_upper_yanshen
					has_fort_building_trigger = yes
					}
				amount = 5
			}

		}
		effect = {
			if = {
				limit = { has_ruler_flag = yingshi_first_trafficker }
				4871 = {
					add_trade_modifier = {
						who = owner
						duration = -1
						power = -30
						key = yingshi_river_blocked
					}
				}
			}
			else = {
				4871 = {
					add_trade_modifier = {
						who = owner
						duration = 10950
						power = -30
						key = yingshi_river_blocked
					}
				}
			}		
		}	
	}
}
yingshi_unified_5 = {
	slot = 5
	generic = no
	ai = yes
	potential = {
		tag = Y10
		has_country_flag = yanszin_unification
	}
	has_country_shield = yes
	
	yingshi_northern_support = {
		icon = mission_moon_moon
		required_missions = {
			yingshi_without_mercy
		}
		position = 8
		provinces_to_highlight = {

		}
		trigger = {
			treasury = 100
			OR = {
				Y01 = {
					AND = {
					has_opinion = {
						who = ROOT	
						value = 50
						}
					is_at_war = no
					}
				}
				NOT = { exists = Y01 }
				}
		}
		effect = {
			add_treasury = -100
			random_owned_province = {
				limit = { NOT = { has_tax_building_trigger = yes } }
				add_building = temple
				add_ogre_minority_size_effect = yes
			}
			random_owned_province = {
				limit = { NOT = { has_tax_building_trigger = yes } }
				add_building = temple
				add_ogre_minority_size_effect = yes
			}
			random_owned_province = {
				limit = { NOT = { has_tax_building_trigger = yes } }
				add_building = temple
				add_ogre_minority_size_effect = yes
			}
			large_increase_of_ogre_tolerance_effect = yes
			add_historical_friend = Y01
		}
	}	
	
	yingshi_different_peace = {
		icon = mission_oni
		required_missions = {
			yingshi_assassins_creed
		}
		position = 13
		provinces_to_highlight = {

		}
		trigger = {
			has_country_flag = yingshi_oni_ruler
			accepted_culture = horned_ogre
			num_of_owned_provinces_with = {
				value = 20
				has_tax_building_trigger = yes
			}

		}
		effect = {
			add_country_modifier = {
				name = yingshi_oni_peace
				duration = 9125
			}
			4811 = { add_permanent_claim = ROOT }
		}
	}	
	
	yingshi_master_spirits = {
		icon = mission_dark_book
		required_missions = {
			yingshi_different_peace
		}
		position = 14
		provinces_to_highlight = {
			province_id = 4811
			NOT = { owned_by = ROOT }
		}
		trigger = {
			num_of_aspects = 3
			church_power = 200
			religious_unity = 0.95
			4811 = { owned_by = ROOT } #ph for 'own any special temple'
		}
		effect = {
			country_event = { id = yingshi.48 }
			#set_country_flag = may defile temples (add this when implemented)
		}
	}		
	
	yingshi_protectors_path = {
		icon = mission_empowerment
		required_missions = {
			yingshi_master_spirits
		}
		position = 16
		provinces_to_highlight = {

		}
		trigger = {
			OR = {
				Y01 = {
					trust = { 
						who = ROOT
						value = 100 
					}
				}
				NOT = { exists = Y01 }
			}
		}
		effect = {
			if = {
				limit = { has_ruler_flag = yingshi_first_oni }
					vassalize = Y01
			}
			else = {
				create_subject = {
					subject_type = "autonomous_vassal"
					subject = Y01
				}
			}	
			demon_hills_region = {
				limit = { 
					OR = {
						NOT = { owned_by = Y01 } 
						NOT = { owned_by = ROOT }
					}
				}
				add_permanent_claim = Y01
			}
		}
	}	
}


	