# Do not change tags in here without changing every other reference to them.
# Do not change tags in here without changing every other reference to them.
# If adding new groups or ideas, make sure they are unique.

# ai_will do does not actually determine weighting, but AI will not pick an idea with ai_will_do = 0
# ROOT = country picking the idea
# groups set to colonial=yes will be higher prioritized by the AI when spending power

nahuatl_reforms = {
	trigger = {
		religion = nahuatl
	}	

	can_buy_idea = {
		vassal = 5
		is_at_war = no
		NOT = { num_of_rebel_controlled_provinces = 1 }
		stability = 1
		NOT = { doom = 50 }
	}
	
	nahuatl_reform_1 = {
		war_exhaustion = -0.05
	}
	nahuatl_reform_2 = {
		diplomatic_upkeep = 1
	}
	nahuatl_reform_3 = {
		discipline = 0.05
	}
	nahuatl_reform_4 = {
		colonists = 1
		auto_explore_adjacent_to_colony = yes
	}
	nahuatl_reform_5 = {
		stability_cost_modifier = -0.2
	}	
	
	ai_will_do = {
		factor = 1
	}
}

inti_reforms = {
	trigger = {
		religion = inti
	}	

	can_buy_idea = {
		is_at_war = no
		NOT = { num_of_rebel_controlled_provinces = 1 }
		stability = 1
		authority = 100
		num_of_cities = 10
	}
	
	inti_reform_1 = {
		manpower_recovery_speed = 0.1
	}
	inti_reform_2 = {
		colonists = 1
		auto_explore_adjacent_to_colony = yes
	}
	inti_reform_3 = {
		legitimacy = 0.5
		devotion = 0.5
	}
	inti_reform_4 = {
		land_morale = 0.1
	}
	inti_reform_5 = {
		core_creation = -0.1
	}	
	
	ai_will_do = {
		factor = 1
	}
}

mesoamerican_reforms = {
	trigger = {
		religion = mesoamerican_religion
	}	

	can_buy_idea = {
		is_at_war = no
		NOT = { num_of_rebel_controlled_provinces = 1 }
		stability = 1
		num_of_cities = 20
		NOT = { overextension_percentage = 0.01 }
	}
	
	mesoamerican_reform_1 = {
		land_maintenance_modifier = -0.1
	}
	mesoamerican_reform_2 = {
		global_unrest = -2
	}
	mesoamerican_reform_3 = {
		infantry_power = 0.1
	}
	mesoamerican_reform_4 = {
		colonists = 1
		auto_explore_adjacent_to_colony = yes
	}
	mesoamerican_reform_5 = {
		core_creation = -0.2
	}	
	
	ai_will_do = {
		factor = 1
	}
}

ynn_river_worship_reform_0 = {
	trigger = {
		religion = ynn_river_worship
	}

	can_buy_idea = {
		NOT = { num_of_rebel_controlled_provinces = 1 }
		is_at_war = no
		stability = 0
		authority = 100
		custom_trigger_tooltip = {
			tooltip = ynn_river_worship_reform_0_buy
			NOT = {
				has_country_flag = yrw_overlord_debating
				has_country_flag = yrw_solo_debate
			}
		}
	}

	ynn_river_worship_reform_0 = {
		prestige = 1
	}
	
	ai_will_do = {
		factor = 1
	}
}

ynn_river_worship_reform_1 = {
	trigger = {
		OR = {
			religion = ynn_river_worship
			religion = ynn_river_reformed
		}
	}

	can_buy_idea = {
		is_at_war = no
		custom_trigger_tooltip = {
			tooltip = ynn_river_worship_reform_1_buy
			OR = {
				has_country_flag = yrw_debate_cheat
				has_country_flag = yrw_1a_reform
				has_country_flag = yrw_1b_reform
			}
		}
	}

	ynn_river_worship_reform_1 = {
		yearly_authority = 0.5
	}
	
	ai_will_do = {
		factor = 1
	}
}

ynn_river_worship_reform_2 = {
	trigger = {
		OR = {
			religion = ynn_river_worship
			religion = ynn_river_reformed
		}
	}

	can_buy_idea = {
		is_at_war = no
		custom_trigger_tooltip = {
			tooltip = ynn_river_worship_reform_2_buy
			OR = {
				has_country_flag = yrw_debate_cheat
				has_country_flag = yrw_2a_reform
				has_country_flag = yrw_2b_reform
			}
		}
	}

	ynn_river_worship_reform_2 = {
		yearly_authority = 0.5
	}
	
	ai_will_do = {
		factor = 1
	}
}

ynn_river_worship_reform_3 = {
	trigger = {
		OR = {
			religion = ynn_river_worship
			religion = ynn_river_reformed
		}
	}

	can_buy_idea = {
		is_at_war = no
		custom_trigger_tooltip = {
			tooltip = ynn_river_worship_reform_3_buy
			OR = {
				has_country_flag = yrw_debate_cheat
				has_country_flag = yrw_3a_reform
				has_country_flag = yrw_3b_reform
			}
		}
		custom_trigger_tooltip = {
			tooltip = ynn_river_worship_reform_cannorians_tt
			OR = {
				is_year = 1550	#Reduces the number of checks by using a simplified condition for AIs
				AND = {
					ai = no
					any_known_country = {
						OR = {
							technology_group = tech_cannorian
							technology_group = tech_elven
							technology_group = tech_dwarven
							technology_group = tech_gnomish
						}
					}
				}
			}
		}
	}

	ynn_river_worship_reform_3 = {
		yearly_authority = 0.5
	}
	
	ai_will_do = {
		factor = 1
	}
}

ynn_river_worship_reform_4 = {
	trigger = {
		OR = {
			religion = ynn_river_worship
			religion = ynn_river_reformed
		}
	}

	can_buy_idea = {
		is_at_war = no
		custom_trigger_tooltip = {
			tooltip = ynn_river_worship_reform_4_buy
			OR = {
				has_country_flag = yrw_debate_cheat
				has_country_flag = yrw_4a_reform
				has_country_flag = yrw_4b_reform
			}
		}		
		custom_trigger_tooltip = {
			tooltip = ynn_river_worship_reform_cannorians_tt
			OR = {
				is_year = 1550	#Reduces the number of checks by using a simplified condition for AIs
				AND = {
					ai = no
					any_known_country = {
						OR = {
							technology_group = tech_cannorian
							technology_group = tech_elven
							technology_group = tech_dwarven
							technology_group = tech_gnomish
						}
					}
				}
			}
		}
	}

	ynn_river_worship_reform_4 = {
		yearly_authority = 0.5
	}
	
	ai_will_do = {
		factor = 1
	}
}