namespace = flavor_beikdugang

#First Encounter with Federation
country_event = {
	id = flavor_beikdugang.1
	title = flavor_beikdugang.1.t
	desc = {
		trigger = { NOT = { has_leader = "Houzhao Targuun" } }
		desc = "flavor_beikdugang.1.d1"
	}
	desc = {
		trigger = { has_leader = "Houzhao Targuun" }
		desc = "flavor_beikdugang.1.d2"
	}
	picture = DIPLOMACY_eventPicture
	
	is_triggered_only = yes
	
	option = {
		name = flavor_beikdugang.1.a
		ai_chance = { factor = 100 }
		custom_tooltip = Y15_discover_forbidden
		hidden_effect = { 
			forbidden_lands_superregion = { discover_country = ROOT }
			every_country = {
				limit = { culture_group = triunic }
				beidugang_area = { discover_country = PREV }
			}
		}
		add_republican_tradition = 10
		add_prestige = 25
		add_splendor = 50
		add_historical_friend = J02
		J02 = { add_historical_friend = ROOT }
		if = {
			limit = { has_leader = "Houzhao Targuun" }
			kill_leader = { type = "Houzhao Targuun" }
			add_prestige = 25
			add_splendor = 50
		}
		hidden_effect = {
			J33 = {
				set_ai_attitude = {
					attitude = attitude_friendly
					who = ROOT
					locked = yes
				}
			}
		}
	}
}

#Fall of Tianlou
country_event = {
	id = flavor_beikdugang.2
	title = flavor_beikdugang.2.t
	desc = flavor_beikdugang.2.d
	picture = COUNTRY_COLLAPSE_eventPicture
	
	is_triggered_only = yes
	
	option = {
		name = flavor_beikdugang.2.a
		ai_chance = { factor = 33 }
		4871 = { #Tianlou
			add_base_tax = -1
			add_base_production = -1
			add_base_manpower = -1
			add_devastation = 5
		}
		4907 = { #Beikdugang
			add_base_tax = 1
			add_base_production = 1
			add_base_manpower = 1
		}
	}
	option = {
		name = flavor_beikdugang.2.b
		ai_chance = { factor = 50 }
		4871 = {
			add_base_tax = -4
			add_base_production = -4
			add_base_manpower = -4
			add_devastation = 25
		}
		4907 = {
			add_base_tax = 3
			add_base_production = 3
			add_base_manpower = 3
		}
	}
	option = {
		name = flavor_beikdugang.2.c
		ai_chance = { factor = 17 }
		4871 = {
			add_base_tax = -6
			add_base_production = -6
			add_base_manpower = -6
			add_devastation = 50
		}
		4907 = {
			add_base_tax = 5
			add_base_production = 5
			add_base_manpower = 5
		}
	}
}

#Houzhao Targuun
country_event = {
	id = flavor_beikdugang.3
	title = flavor_beikdugang.3.t
	desc = flavor_beikdugang.3.d
	picture = NAVAL_MILITARY_eventPicture
	
	is_triggered_only = yes
	
	option = {
		name = flavor_beikdugang.3.a
		ai_chance = { factor = 100 }
		define_explorer = {
			shock = 4
			fire = 4
			manuever = 6
			siege = 3
			name = "Houzhao Targuun"
			trait = accomplished_sailor_personality
		}
	}
}

#Relic Monopoly
country_event = {
	id = flavor_beikdugang.4
	title = flavor_beikdugang.4.t
	desc = flavor_beikdugang.4.d
	picture = TRADE_GOODS_METALS_AND_MINING_EQUIPENT_eventPicture
	
	is_triggered_only = yes
	major = yes
	
	option = {
		name = flavor_beikdugang.4.a
		change_price = {
			trade_goods = precursor_relics
			key = beikdugang_monopoly
			
			value = 0.8
			duration = -1
		}
	}
}

#Houzhao Targuun
country_event = {
	id = flavor_beikdugang.5
	title = flavor_beikdugang.5.t
	desc = flavor_beikdugang.5.d
	picture = DIPLOMACY_eventPicture
	
	is_triggered_only = yes
	
	immediate = {
		hidden_effect = {
			random_subject_country = { 
				limit = {
					is_colonial_nation = yes
					num_of_owned_provinces_with = {
						value = 15
						colonial_region = colonial_eordand
					}
					NOT = { liberty_desire = 50 }
				}
				save_event_target_as = Y15_eordand_colony
			}
		}
	}
	
	option = {
		name = flavor_beikdugang.5.a
		ai_chance = { factor = 30 }
		small_decrease_of_ruinborn_tolerance_effect = yes
		event_target:Y15_eordand_colony = {
			small_decrease_of_ruinborn_tolerance_effect = yes
			add_liberty_desire = -30
			add_country_modifier = {
				name = Y15_sated
				duration = -1
			}
		}
	}
	option = {
		name = flavor_beikdugang.5.b
		ai_chance = { factor = 30 }
		add_stability = -1
		largest_increase_of_ruinborn_tolerance_effect = yes
		event_target:Y15_eordand_colony = {
			largest_increase_of_ruinborn_tolerance_effect = yes
			add_liberty_desire = -30
			add_country_modifier = {
				name = Y15_sated
				duration = -1
			}
		}
	}
	option = {
		name = flavor_beikdugang.5.c
		ai_chance = { factor = 30 }
		event_target:Y15_eordand_colony = {
			add_tariff_value = -1
			add_liberty_desire = -150
			if = {
				limit = {
					num_of_owned_provinces_with = {
						value = 5
						culture = peitar
					}
				}
				change_primary_culture = peitar
				change_religion = eordellon
			}
			else_if = {
				limit = {
					num_of_owned_provinces_with = {
						value = 5
						culture = snecboth
					}
				}
				change_primary_culture = snecboth
				change_religion = winter_court
			}
			else = {
				change_primary_culture = caamas
				change_religion = summer_court
			}
			add_accepted_culture = northern_yan
		}
	}
}

#Triunic Soldiers
country_event = {
	id = flavor_beikdugang.6
	title = flavor_beikdugang.6.t
	desc = flavor_beikdugang.6.d
	picture = LAND_MILITARY_eventPicture
	
	is_triggered_only = yes
	
	option = {
		name = flavor_beikdugang.6.a
		ai_chance = { factor = 50 }
		add_army_tradition = 20
		set_country_flag = beikdugang_triunic_merc
		custom_tooltip = beikdugang_triunic_merc_tt
	}
	
	option = {
		name = flavor_beikdugang.6.b
		ai_chance = { factor = 50 }
		change_unit_type = tech_islanders
		add_country_modifier = {
			name = Y15_triunic_military
			duration = -1
		}
		add_stability = -1
		add_army_tradition = -20
	}
}

#Khaashalg Expedition meets Rünsukhi
country_event = {
	id = flavor_beikdugang.7
	title = flavor_beikdugang.7.t
	desc = flavor_beikdugang.7.d
	picture = EXPLORERS_eventPicture
	
	is_triggered_only = yes
	
	option = {
		name = flavor_beikdugang.7.a
		ai_chance = { factor = 80 }
		add_splendor = 25
		add_treasury = -50
		country_event = { 
			id = flavor_beikdugang.8
			days = 80
			random = 20
			tooltip = Y15_khaashalg_2
		}
	}
	
	option = {
		name = flavor_beikdugang.7.b
		ai_chance = { factor = 20 }
		add_splendor = 25
		country_event = { 
			id = flavor_beikdugang.8
			days = 80
			random = 20
			tooltip = Y15_khaashalg_3
		}
		set_country_flag = Y15_face_stealer
	}
}

#Khaashalg Expedition meets Facestealer
country_event = {
	id = flavor_beikdugang.8
	title = flavor_beikdugang.8.t
	desc = {
		trigger = { has_country_flag = Y15_face_stealer }
		desc = "flavor_beikdugang.8.d1"
	}
	desc = {
		trigger = { NOT = { has_country_flag = Y15_face_stealer } }
		desc = "flavor_beikdugang.8.d2"
	}
	picture = EXPLORERS_eventPicture
	
	is_triggered_only = yes
	
	option = {
		name = flavor_beikdugang.8.a
		trigger = { has_country_flag = Y15_face_stealer }
		clr_country_flag = Y15_face_stealer
		add_manpower = 1
		add_splendor = -10
	}
	
	option = {
		name = flavor_beikdugang.8.b
		trigger = { NOT = { has_country_flag = Y15_face_stealer } }
		add_manpower = 9
		add_splendor = 100
	}
}

#Weizhen Bodojiin
country_event = {
	id = flavor_beikdugang.9
	title = flavor_beikdugang.9.t
	desc = flavor_beikdugang.9.d
	picture = UNIVERSITY_eventPicture
	
	is_triggered_only = yes
	
	immediate = {
		hidden_effect = {
			add_ruler_personality = mage_personality
			add_ruler_personality = silver_tongue_personality
			set_ruler_flag = abjuration_1
			set_ruler_flag = abjuration_2
			set_ruler_flag = abjuration_3
			set_ruler_flag = conjuration_1
			set_ruler_flag = conjuration_2
			set_ruler_flag = conjuration_3
			set_ruler_flag = divination_1
			set_ruler_flag = enchantment_1
			set_ruler_flag = enchantment_2
			set_ruler_flag = evocation_1
			set_ruler_flag = evocation_2
			set_ruler_flag = illusion_1
		}		
	}
	
	option = {
		name = flavor_beikdugang.9.a
		tooltip = {
			add_ruler_personality = mage_personality
			add_ruler_personality = silver_tongue_personality
		}
		add_ruler_modifier = { 
			name = Y15_weizhen_bodojiin
			duration = -1
		}
	}
}

#Federation Unites
country_event = {
	id = flavor_beikdugang.10
	title = flavor_beikdugang.10.t
	desc = flavor_beikdugang.10.d
	picture = DIPLOMACY_eventPicture
	
	is_triggered_only = yes
	
	option = {
		name = flavor_beikdugang.10.a
		add_prestige = 10
		if = {
			limit = {
				OR = {
					NOT = { J33 = { historical_friend_with = ROOT } }
					NOT = { historical_friend_with =  J33 }
				}
			}
			add_historical_friend = J33
			J33 = { add_historical_friend = ROOT }
		}
		hidden_effect = { 4907 = { add_province_triggered_modifier = Y15_J33_friends2 } }
	}
}

#debug
country_event = {
	id = flavor_beikdugang.0
	title = flavor_beikdugang.0.t
	desc = flavor_beikdugang.0.d
	picture = EXPLORERS_eventPicture
	
	is_triggered_only = yes
	
	option = {
		name = flavor_beikdugang.0.a
		#custom_tooltip = beikdugang_lightst
		4907 = { set_province_flag = beikdugang_trade_port }
			4907 = {
				add_great_project = {
					type = beikdugang_lights
					instant = yes
				}
			}
		#custom_tooltip = beikdugang_arsenalt
		4908 = { set_province_flag = beikdugang_war_port }
			4908 = {
				add_great_project = {
					type = beikdugang_arsenal
					instant = no
				}
			}
	}
	option = {
		name = flavor_beikdugang.0.b
		set_revolution_target = ROOT
		add_government_reform = beikdugang_revolutionary_thalassocracy_reform
		add_revolutionary_zeal = 20
		change_government_reform_progress = 200
	}
	option = {
		name = flavor_beikdugang.0.b
		capital_scope = {
					area = {
							add_institution_embracement = {
							which = enlightenment
							value = 80
						}
						add_province_modifier = { 
							name = Y15_enlightment
							duration = 24
						}
					}
				}
	}
	option = {
		name = flavor_beikdugang.0.c
		hidden_effect = { 4909 = { add_province_triggered_modifier = beikdugang_rev_sub } }
	}
	option = {
		name = flavor_beikdugang.0.c
		random_list = {
			33 = { JY_LF_Y15_adm_advisor = yes }	
			33 = { JY_LF_Y15_dip_advisor = yes }
			33 = { JY_LF_Y15_mil_advisor = yes }
			1 = { JY_LF_Y15_kuk_advisor = yes }
		}
	}
}
