
namespace = ogre

#Reign of Ziltagh
country_event = {
	id = ogre.1
	title = ogre.1.t
	picture = DIPLOMACY_SIGNING_eventPicture
	desc = ogre.1.d
	
	fire_only_once = yes
	is_triggered_only = yes
	
	trigger = {
		is_year = 1444
		NOT = { has_country_flag = flag_of_ziltagh }
		tag = I90
	}
	
	immediate = {
		set_country_flag = flag_of_ziltagh
	}
	
	#Long may he Reign
	option = {
		name = ogre.1.a
		ai_chance = { factor = 100 }
		add_ruler_modifier = { 
			name = reign_of_ziltagh
			duration = -1
		}
	}
}

#Warring Clans
country_event = {
	id = ogre.2
	title = ogre.2.t
	picture = VILLAGE_RAIDED_eventPicture
	desc = ogre.2.d
	
	is_triggered_only = yes
	hidden = yes
	
	trigger = {
		OR = {
			tag = J41
			tag = J42
			tag = J43
			tag = J44
			tag = J45
			tag = J46
		}
		NOT = { has_country_flag = ogre_clan }
	}
	
	immediate = {
		set_country_flag = ogre_clan
	}
	
	#WAAAGH
	option = {
		name = ogre.2.a
		ai_chance = { factor = 100 }
		every_country = {
			limit = { OR = {
				tag = J41
				tag = J42
				tag = J43
				tag = J44
				tag = J45
				tag = J46
				} 
			}
			add_opinion = { who = PREV modifier = opinion_rival_tribe }
		}
	}
}

#Hatred between Maghargma Ogres and Tribal Ogres
country_event = {
	id = ogre.3
	title = ogre.3.t
	picture = VILLAGE_RAIDED_eventPicture
	desc = ogre.3.d
	
	is_triggered_only = yes
	hidden = yes
	
	trigger = {
		OR = {
			tag = I90
			tag = J35
			tag = J36
			tag = J37
			tag = J38
			tag = J39
			tag = J40
		}
		NOT = { has_country_flag = ogre_relations_settled }
	}
	
	immediate = {
		set_country_flag = ogre_relations_settled
	}
	
	#WAAAGH
	option = {
		name = ogre.2.a
		ai_chance = { factor = 100 }
		every_country = {
			limit = { OR = {
				tag = J41
				tag = J42
				tag = J43
				tag = J44
				tag = J45
				tag = J46
				} 
			}
			add_opinion = { who = PREV modifier = decadent_royals }
		}
	}
}

#Hatred between Tribes and Maghargma Ogres
country_event = {
	id = ogre.4
	title = ogre.4.t
	picture = VILLAGE_RAIDED_eventPicture
	desc = ogre.4.d
	
	is_triggered_only = yes
	hidden = yes
	
	trigger = {
		OR = {
			tag = J41
			tag = J42
			tag = J43
			tag = J44
			tag = J45
			tag = J46
		}
		NOT = { has_country_flag = ogre_relations_settled }
	}
	
	immediate = {
		set_country_flag = ogre_relations_settled
	}
	
	#WAAAGH
	option = {
		name = ogre.2.a
		ai_chance = { factor = 100 }
		every_country = {
			limit = { OR = {
				tag = I90
				tag = J35
				tag = J36
				tag = J37
				tag = J38
				tag = J39
				tag = J40
				} 
			}
			add_opinion = { who = PREV modifier = disobedient_tribals }
		}
	}
}

#Clan Reform
country_event = {
	id = ogre.5
	title = ogre.5.t
	picture = CORRUPTION_eventPicture
	desc = ogre.5.d
	
	fire_only_once = yes
	is_triggered_only = yes
	
	trigger = {
		always = yes
	}
	
	#Centralized
	option = {
		name = ogre.5.a
		ai_chance = { factor = 100 }
		add_country_modifier = { 
			name = centralized_ogre
			duration = -1
		}
	}
	#Decentralized
	option = {
		name = ogre.5.b
		ai_chance = { factor = 100 }
		add_country_modifier = {
			name = decentralized_ogre
			duration = -1
		}
	}
}

#Land Reform
country_event = {
	id = ogre.6
	title = ogre.6.t
	picture = FARMING_eventPicture
	desc = ogre.6.d
	
	fire_only_once = yes
	is_triggered_only = yes
	
	trigger = {
		always = yes
	}
	
	#Rule by the Strong
	option = {
		name = ogre.6.a
		ai_chance = { factor = 100 }
		add_country_modifier = { 
			name = stronglords
			duration = -1
		}
	}
	#Rule by Blood
	option = {
		name = ogre.6.b
		ai_chance = { factor = 100 }
		add_country_modifier = {
			name = landlords
			duration = -1
		}
	}
}

#War Reform
country_event = {
	id = ogre.7
	title = ogre.7.t
	picture = LAND_MILITARY_eventPicture
	desc = ogre.7.d
	
	fire_only_once = yes
	is_triggered_only = yes
	
	trigger = {
		always = yes
	}
	
	#WAAAGH
	option = {
		name = ogre.7.a
		ai_chance = { factor = 100 }
		add_country_modifier = { 
			name = horde_army
			duration = -1
		}
	}
	#Warlords
	option = {
		name = ogre.7.b
		ai_chance = { factor = 100 }
		add_country_modifier = {
			name = warlord_army
			duration = -1
		}
	}
}

#Blackhand Missive
country_event = {
	id = ogre.8
	title = ogre.8.t
	picture = OVEREXTENSION_eventPicture
	desc = ogre.8.d
	
	is_triggered_only = yes
	
	trigger = {
		always = yes
	}
	
	#Submit
	option = {
		name = ogre.8.a
		ai_chance = { 
			factor = 50
			modifier = {
				factor = 10
				ruler_has_personality = craven_personality
			}
			modifier = {
				factor = 2
				ruler_has_personality = careful_personality
			}
			modifier = {
				factor = 5
				ruler_has_personality = naive_personality
			}
		}
		hidden_effect = { set_country_flag = ogre_vassal }
		add_prestige = -15
	}
	
	#Refuse
	option = {
		name = ogre.8.b
		ai_chance = {
			factor = 100
			modifier = {
				factor = 10
				ruler_has_personality = bold_fighter_personality
			}
			modifier = {
				factor = 2
				ruler_has_personality = righteous_personality
			}
			modifier = {
				factor = 5
				ruler_has_personality = incorruptible_personality
			}
		}
		hidden_effect = { set_country_flag = ogre_refuse }
		add_prestige = 10
	}
}

#The Response
country_event = {
	id = ogre.9
	title = ogre.9.t
	picture = BIG_BOOK_eventPicture
	desc = ogre.9.d
	
	is_triggered_only = yes
	fire_only_once = yes
	
	trigger = {
		always = yes
	}
	
	#Let's see
	option = {
		name = ogre.9.a
		ai_chance = { factor = 100 }
		every_country = { limit = { has_country_flag = ogre_vassal }
			ROOT = {
				create_subject = {
					subject_type = tributary_state
					subject = PREV
				}
			}
		}
		every_country = { limit = { has_country_flag = ogre_refuse }
			ROOT = {
				add_casus_belli = {
					target = PREV
					type = cb_force_tributary
					months = 300
				}
			}
		}
	}
}

#Trade Goods Change
country_event = {
	id = ogre.10
	title = ogre.10.t
	picture = TRADE_GOODS_METALS_AND_MINING_EQUIPENT_eventPicture
	desc = ogre.10.d
	
	is_triggered_only = yes
	fire_only_once = yes
	
	trigger = {
		always = yes
	}
	
	#Digging an Ogrehole
	option = {
		name = ogre.10.a
		ai_chance = { factor = 100 }
		random_list = {
			30 = {
				capital_scope = { change_trade_goods = copper }
			}
			25 = {
				capital_scope = { change_trade_goods = iron }
			}
			20 = {
				capital_scope = { change_trade_goods = gems }
			}
			20 = {
				capital_scope = { change_trade_goods = gold }
			}
			4 = {
				capital_scope = { change_trade_goods = damestear }
			}
			1 = {
				custom_tooltip = secret_ogre_damestear_tooltip
				capital_scope = { 
					change_trade_goods = damestear
					hidden_effect = { set_province_flag = permanent_damestear }
				}	
			}
		}
	}
}

country_event = {
	id = ogre.11
	title = ogre.11.t
	picture = CITY_DEVELOPMENT_eventPicture
	desc = ogre.11.d
	
	is_triggered_only = yes
	
	trigger = {
		always = yes
	}
	
	#Construction Complete
	option = {
		name = ogre.11.a
		ai_chance = { factor = 100 }
		add_country_modifier = {
			name = kelaktar
			duration = -1
		}
	}
}

country_event = {
	id = ogre.12
	title = ogre.12.t
	picture = BAD_WITH_MONARCH_eventPicture
	desc = ogre.12.d
	
	is_triggered_only = yes
	fire_only_once = yes
	
	trigger = {
		always = yes
	}
	
	#Worrisome
	option = {
		name = ogre.12.a
		ai_chance = { factor = 100 }
		add_prestige = -10
	}
}

country_event = {
	id = ogre.13
	title = ogre.13.t
	picture = COMET_SIGHTED_eventPicture
	desc = ogre.13.d
	
	is_triggered_only = yes
	fire_only_once = yes
	
	trigger = {
		always = yes
	}
	
	#Nuttin
	option = {
		name = ogre.13.a
		ai_chance = { factor = 100 }
		trigger = { 
			NOT = { 
				OR = {
					has_country_flag = ecocap_mission_1
					has_country_flag = ecocap_mission_2
					has_country_flag = ecocap_mission_3
				}
			}
			NOT = { 
				OR = {
					has_country_flag = warcap_mission_1
					has_country_flag = warcap_mission_2
					has_country_flag = warcap_mission_3
				}
			}
		}
		
		every_owned_province = {
			limit = { province_group = wild_clan_lands }
			add_base_tax = -1
			add_base_production = -1
			add_base_manpower = -1
		}
		5003 = {
			move_capital_effect = yes 
			add_province_modifier = {
				name = ogrehome
				duration = -1
			}
			change_province_name = "Skurkokli"
			rename_capital = "Skurkokli"
			add_base_tax = 6
			add_base_production = 6
			add_base_manpower = 6
			add_building = fort_15th
		}
	}
	#Eco 1
	option = {
		name = ogre.13.a
		ai_chance = { factor = 100 }
		trigger = { 
			has_country_flag = ecocap_mission_1
			NOT = { 
				OR = {
					has_country_flag = warcap_mission_1
					has_country_flag = warcap_mission_2
					has_country_flag = warcap_mission_3
				}
			}
		}
		
		every_owned_province = {
			limit = { province_group = wild_clan_lands }
			add_base_tax = -1
			add_base_production = -1
			add_base_manpower = -1
		}
		5003 = {
			move_capital_effect = yes 
			add_province_modifier = {
				name = ogrehome
				duration = -1
			}
			add_province_modifier = {
				name = ecocap_mission_1
				duration = -1
			}
			change_province_name = "Skurkokli"
			rename_capital = "Skurkokli"
			add_base_tax = 6
			add_base_production = 6
			add_base_manpower = 6
			add_building = fort_15th
		}
	}
	#Eco 2
	option = {
		name = ogre.13.a
		ai_chance = { factor = 100 }
		trigger = { 
			has_country_flag = ecocap_mission_2
			NOT = { 
				OR = {
					has_country_flag = warcap_mission_1
					has_country_flag = warcap_mission_2
					has_country_flag = warcap_mission_3
				}
			}
		}
		
		every_owned_province = {
			limit = { province_group = wild_clan_lands }
			add_base_tax = -1
			add_base_production = -1
			add_base_manpower = -1
		}
		5003 = {
			move_capital_effect = yes 
			add_province_modifier = {
				name = ogrehome
				duration = -1
			}
			add_province_modifier = {
				name = ecocap_mission_2
				duration = -1
			}
			change_province_name = "Skurkokli"
			rename_capital = "Skurkokli"
			add_base_tax = 6
			add_base_production = 6
			add_base_manpower = 6
			add_building = fort_15th
			add_building = marketplace
		}
	}
	#Eco 3
	option = {
		name = ogre.13.a
		ai_chance = { factor = 100 }
		trigger = { 
			has_country_flag = ecocap_mission_3
			NOT = { 
				OR = {
					has_country_flag = warcap_mission_1
					has_country_flag = warcap_mission_2
					has_country_flag = warcap_mission_3
				}
			}
		}
		
		every_owned_province = {
			limit = { province_group = wild_clan_lands }
			add_base_tax = -1
			add_base_production = -1
			add_base_manpower = -1
		}
		5003 = {
			move_capital_effect = yes 
			add_province_modifier = {
				name = ogrehome
				duration = -1
			}
			add_province_modifier = {
				name = ecocap_mission_3
				duration = -1
			}
			change_province_name = "Skurkokli"
			rename_capital = "Skurkokli"
			add_base_tax = 6
			add_base_production = 6
			add_base_manpower = 6
			add_building = fort_15th
			add_building = marketplace
		}
	}
	#Mil 1
	option = {
		name = ogre.13.a
		ai_chance = { factor = 100 }
		trigger = { 
			has_country_flag = warcap_mission_1
			NOT = { 
				OR = {
					has_country_flag = ecocap_mission_1
					has_country_flag = ecocap_mission_2
					has_country_flag = ecocap_mission_3
				}
			}
		}
		
		every_owned_province = {
			limit = { province_group = wild_clan_lands }
			add_base_tax = -1
			add_base_production = -1
			add_base_manpower = -1
		}
		5003 = {
			move_capital_effect = yes 
			add_province_modifier = {
				name = ogrehome
				duration = -1
			}
			add_province_modifier = {
				name = warcap_mission_1
				duration = -1
			}
			change_province_name = "Skurkokli"
			rename_capital = "Skurkokli"
			add_base_tax = 6
			add_base_production = 6
			add_base_manpower = 6
		}
	}
	#Mil 2
	option = {
		name = ogre.13.a
		ai_chance = { factor = 100 }
		trigger = { 
			has_country_flag = warcap_mission_2
			NOT = { 
				OR = {
					has_country_flag = ecocap_mission_1
					has_country_flag = ecocap_mission_2
					has_country_flag = ecocap_mission_3
				}
			}
		}
				
		every_owned_province = {
			limit = { province_group = wild_clan_lands }
			add_base_tax = -1
			add_base_production = -1
			add_base_manpower = -1
		}
		5003 = {
			move_capital_effect = yes 
			add_province_modifier = {
				name = ogrehome
				duration = -1
			}
			add_province_modifier = {
				name = warcap_mission_2
				duration = -1
			}
			change_province_name = "Skurkokli"
			rename_capital = "Skurkokli"
			add_base_tax = 6
			add_base_production = 6
			add_base_manpower = 6
		}
	}
	#Mil 3
	option = {
		name = ogre.13.a
		ai_chance = { factor = 100 }
		trigger = { 
			has_country_flag = warcap_mission_3
			NOT = { 
				OR = {
					has_country_flag = ecocap_mission_1
					has_country_flag = ecocap_mission_2
					has_country_flag = ecocap_mission_3
				}
			}
		}
				
		every_owned_province = {
			limit = { province_group = wild_clan_lands }
			add_base_tax = -1
			add_base_production = -1
			add_base_manpower = -1
		}
		5003 = {
			move_capital_effect = yes 
			add_province_modifier = {
				name = ogrehome
				duration = -1
			}
			add_province_modifier = {
				name = warcap_mission_3
				duration = -1
			}
			change_province_name = "Skurkokli"
			rename_capital = "Skurkokli"
			add_base_tax = 6
			add_base_production = 6
			add_base_manpower = 6
			change_trade_goods = iron
		}
	}
	#E1 M1
	option = {
		name = ogre.13.a
		ai_chance = { factor = 100 }
		trigger = { 
			has_country_flag = ecocap_mission_1
			has_country_flag = warcap_mission_1
		}
				
		every_owned_province = {
			limit = { province_group = wild_clan_lands }
			add_base_tax = -1
			add_base_production = -1
			add_base_manpower = -1
		}
		5003 = {
			move_capital_effect = yes 
			add_province_modifier = {
				name = ogrehome
				duration = -1
			}
			add_province_modifier = {
				name = ecocap_mission_1
				duration = -1
			}
			add_province_modifier = {
				name = warcap_mission_1
				duration = -1
			}
			change_province_name = "Skurkokli"
			rename_capital = "Skurkokli"
			add_base_tax = 6
			add_base_production = 6
			add_base_manpower = 6
			add_building = fort_15th
		}
	}
	#E1 M2
	option = {
		name = ogre.13.a
		ai_chance = { factor = 100 }
		trigger = { 
			has_country_flag = ecocap_mission_1
			has_country_flag = warcap_mission_2
		}
				
		every_owned_province = {
			limit = { province_group = wild_clan_lands }
			add_base_tax = -1
			add_base_production = -1
			add_base_manpower = -1
		}
		5003 = {
			move_capital_effect = yes 
			add_province_modifier = {
				name = ogrehome
				duration = -1
			}
			add_province_modifier = {
				name = ecocap_mission_1
				duration = -1
			}
			add_province_modifier = {
				name = warcap_mission_2
				duration = -1
			}
			change_province_name = "Skurkokli"
			rename_capital = "Skurkokli"
			add_base_tax = 6
			add_base_production = 6
			add_base_manpower = 6
			add_building = fort_15th
		}
	}
	#E1 M3
	option = {
		name = ogre.13.a
		ai_chance = { factor = 100 }
		trigger = { 
			has_country_flag = ecocap_mission_1
			has_country_flag = warcap_mission_3
		}
				
		every_owned_province = {
			limit = { province_group = wild_clan_lands }
			add_base_tax = -1
			add_base_production = -1
			add_base_manpower = -1
		}
		5003 = {
			move_capital_effect = yes 
			add_province_modifier = {
				name = ogrehome
				duration = -1
			}
			add_province_modifier = {
				name = ecocap_mission_1
				duration = -1
			}
			add_province_modifier = {
				name = warcap_mission_2
				duration = -1
			}
			change_province_name = "Skurkokli"
			rename_capital = "Skurkokli"
			add_base_tax = 6
			add_base_production = 6
			add_base_manpower = 6
			add_building = fort_15th
			change_trade_goods = iron
		}
	}
	#E2 M1
	option = {
		name = ogre.13.a
		ai_chance = { factor = 100 }
		trigger = { 
			has_country_flag = ecocap_mission_2
			has_country_flag = warcap_mission_1
		}
				
		every_owned_province = {
			limit = { province_group = wild_clan_lands }
			add_base_tax = -1
			add_base_production = -1
			add_base_manpower = -1
		}
		5003 = {
			move_capital_effect = yes 
			add_province_modifier = {
				name = ogrehome
				duration = -1
			}
			add_province_modifier = {
				name = ecocap_mission_2
				duration = -1
			}
			add_province_modifier = {
				name = warcap_mission_1
				duration = -1
			}
			change_province_name = "Skurkokli"
			rename_capital = "Skurkokli"
			add_base_tax = 6
			add_base_production = 6
			add_base_manpower = 6
			add_building = fort_15th
			add_building = marketplace
		}
	}
	#E2 M2
	option = {
		name = ogre.13.a
		ai_chance = { factor = 100 }
		trigger = { 
			has_country_flag = ecocap_mission_2
			has_country_flag = warcap_mission_2
		}
				
		every_owned_province = {
			limit = { province_group = wild_clan_lands }
			add_base_tax = -1
			add_base_production = -1
			add_base_manpower = -1
		}
		5003 = {
			move_capital_effect = yes 
			add_province_modifier = {
				name = ogrehome
				duration = -1
			}
			add_province_modifier = {
				name = ecocap_mission_2
				duration = -1
			}
			add_province_modifier = {
				name = warcap_mission_2
				duration = -1
			}
			change_province_name = "Skurkokli"
			rename_capital = "Skurkokli"
			add_base_tax = 6
			add_base_production = 6
			add_base_manpower = 6
			add_building = fort_15th
			add_building = marketplace
		}
	}
	#E2 M3
	option = {
		name = ogre.13.a
		ai_chance = { factor = 100 }
		trigger = { 
			has_country_flag = ecocap_mission_2
			has_country_flag = warcap_mission_3
		}
				
		every_owned_province = {
			limit = { province_group = wild_clan_lands }
			add_base_tax = -1
			add_base_production = -1
			add_base_manpower = -1
		}
		5003 = {
			move_capital_effect = yes 
			add_province_modifier = {
				name = ogrehome
				duration = -1
			}
			add_province_modifier = {
				name = ecocap_mission_2
				duration = -1
			}
			add_province_modifier = {
				name = warcap_mission_3
				duration = -1
			}
			change_province_name = "Skurkokli"
			rename_capital = "Skurkokli"
			add_base_tax = 6
			add_base_production = 6
			add_base_manpower = 6
			add_building = fort_15th
			add_building = marketplace
			change_trade_goods = iron
		}
	}
	#E3 M1
	option = {
		name = ogre.13.a
		ai_chance = { factor = 100 }
		trigger = { 
			has_country_flag = ecocap_mission_3
			has_country_flag = warcap_mission_1
		}
				
		every_owned_province = {
			limit = { province_group = wild_clan_lands }
			add_base_tax = -1
			add_base_production = -1
			add_base_manpower = -1
		}
		5003 = {
			move_capital_effect = yes 
			add_province_modifier = {
				name = ogrehome
				duration = -1
			}
			add_province_modifier = {
				name = ecocap_mission_3
				duration = -1
			}
			add_province_modifier = {
				name = warcap_mission_1
				duration = -1
			}
			change_province_name = "Skurkokli"
			rename_capital = "Skurkokli"
			add_base_tax = 6
			add_base_production = 6
			add_base_manpower = 6
			add_building = fort_15th
			add_building = marketplace
		}
	}
	#E3 M2
	option = {
		name = ogre.13.a
		ai_chance = { factor = 100 }
		trigger = { 
			has_country_flag = ecocap_mission_3
			has_country_flag = warcap_mission_2
		}
				
		every_owned_province = {
			limit = { province_group = wild_clan_lands }
			add_base_tax = -1
			add_base_production = -1
			add_base_manpower = -1
		}
		5003 = {
			move_capital_effect = yes 
			add_province_modifier = {
				name = ogrehome
				duration = -1
			}
			add_province_modifier = {
				name = ecocap_mission_3
				duration = -1
			}
			add_province_modifier = {
				name = warcap_mission_2
				duration = -1
			}
			change_province_name = "Skurkokli"
			rename_capital = "Skurkokli"
			add_base_tax = 6
			add_base_production = 6
			add_base_manpower = 6
			add_building = fort_15th
			add_building = marketplace
		}
	}
	#E3 M3
	option = {
		name = ogre.13.a
		ai_chance = { factor = 100 }
		trigger = { 
			has_country_flag = ecocap_mission_3
			has_country_flag = warcap_mission_3
		}
				
		every_owned_province = {
			limit = { province_group = wild_clan_lands }
			add_base_tax = -1
			add_base_production = -1
			add_base_manpower = -1
		}
		5003 = {
			move_capital_effect = yes 
			add_province_modifier = {
				name = ogrehome
				duration = -1
			}
			add_province_modifier = {
				name = ecocap_mission_3
				duration = -1
			}
			add_province_modifier = {
				name = warcap_mission_3
				duration = -1
			}
			change_province_name = "Skurkokli"
			rename_capital = "Skurkokli"
			add_base_tax = 6
			add_base_production = 6
			add_base_manpower = 6
			add_building = fort_15th
			add_building = marketplace
			change_trade_goods = iron
		}
	}
}

country_event = {
	id = ogre.14
	title = ogre.14.t
	picture = BORDER_TENSION_eventPicture
	desc = ogre.14.d
	
	is_triggered_only = yes
	fire_only_once = yes
	
	trigger = {
		always = yes
	}
	
	#Offense!
	option = {
		name = ogre.14.a
		ai_chance = { factor = 100 }
		add_country_modifier = {
			name = take_the_crown
			duration = 3650
		}
	}
	
	#Defense!
	option = {
		name = ogre.14.b
		ai_chance = { factor = 100 }
		add_country_modifier = {
			name = protect_the_swamp
			duration = 3650
		}
	}
}

#rancor/Bloodtooth Event
country_event = {
	id = ogre.15
	title = ogre.15.t
	picture = EP_MAORI_HAKA_eventPicture
	desc = ogre.15.d
	
	fire_only_once = yes

	trigger = {
		tag = J47
		has_country_flag = rancor_comes
	}

	mean_time_to_happen = {
		days = 30
	}
	
	option = {
		name = ogre.15.a
		define_ruler = {
			name = "Rancor"
			dynasty = "Bloodtooth"
			claim = 100
			religion = ROOT
			culture = fathide_ogre
			adm = 6
			dip = 6 
			mil = 6
			age = 25
		}
		define_ruler_to_general = {
			fire = 1
			shock = 7
			manuever = 6
			siege = 5
			trait = hardy_warrior_personality
		}
		define_general = {
			shock = 10       
			fire = 3   
			manuever = 3   
			siege = 6
			name = "Karigan Frosthide"
			trait = war_wizard_personality
		}
		hidden_effect = {
			add_ruler_personality = conqueror_personality
			add_ruler_personality = inspiring_leader_personality
			add_ruler_personality = immortal_personality
			set_ruler_flag = set_immortality
			set_ruler_flag = is_rancor
			if = {
				limit = { 
					NOT = { has_country_modifier = ogre_military }
				}
				clear_racial_military = yes
				add_country_modifier = { 
					name = ogre_military
					duration = -1  
				}
			}
			if = {
				limit = { 
					NOT = { unit_type = tech_ogre } 
				}
				change_unit_type = tech_ogre
			}
		}
		add_ruler_modifier = {
			name = skurkokli_gorger_lord
		}
		set_country_flag = rancor_cannot_die
		clr_country_flag = rancor_comes
	}
}

#Consume Krakdhumvror
country_event = {
	id = ogre.16
	title = ogre.16.t
	picture = FEAST_eventPicture
	desc = ogre.16.d
	
	is_triggered_only = yes
	fire_only_once = yes
	
	trigger = {
		always = yes
	}
	
	#Eat the Dwarves!
	option = {
		name = ogre.16.a
		ai_chance = { factor = 100 }
		add_power_projection = {
			type = mission_rewards_power_projection
			amount = 25
		}
		add_prestige = 25
		add_treasury = 1000
		add_country_modifier = {
			name = skurkokli_reinforced_weapons
			duration = -1
		}
		add_country_modifier = {
			name = skurkokli_dwarven_arms_and_siege
			duration = 3650 #10 years
		}
		hidden_effect = {
			add_country_modifier = {
				name = skurkokli_consumed_the_land
				duration = 1825 #5 years
			}
		}
	}
}


#Consume Serpent's Vale
country_event = {
	id = ogre.17
	title = ogre.17.t
	picture = IMPALED_SOLDIERS_eventPicture
	desc = ogre.17.d
	
	is_triggered_only = yes
	fire_only_once = yes
	
	trigger = {
		always = yes
	}
	
	#Strip the Vale clean, Bring the Mossmouth and the Gobbos
	option = {
		name = ogre.17.a
		ai_chance = { factor = 100 }
		add_power_projection = {
			type = mission_rewards_power_projection
			amount = 10
		}
		add_prestige = 10
		add_treasury = 500
		add_country_modifier = {
			name = skurkokli_ogre_manpower_3
			duration = -1
		}
		hidden_effect = {
			remove_country_modifier = skurkokli_ogre_manpower_2
			add_country_modifier = {
				name = skurkokli_consumed_the_land
				duration = 1825 #5 years
			}
		}
	}
}


#Skur Capital becomes Castonath
country_event = {
	id = ogre.18
	title = ogre.18.t
	picture = CITY_VIEW_eventPicture
	desc = ogre.18.d
	
	is_triggered_only = yes
	fire_only_once = yes
	
	trigger = {
		always = yes
	}
	
	#Nuttin
	option = {
		name = ogre.18.a
		ai_chance = { factor = 100 }
		trigger = {
			NOT = { 
				OR = {
					has_country_flag = warcap_mission_1
					has_country_flag = warcap_mission_2
					has_country_flag = warcap_mission_3
				}
			}
		}
		
		#North Castonath
		833 = {
			move_capital_effect = yes 
			change_culture = bloodtooth_ogre
			change_religion = ROOT
			change_province_name = "Loethrgolba"
			rename_capital = "Loethrgolba"
			add_base_tax = 2
			add_base_production = 2
			add_base_manpower = 2
		}
		#South Castonath
		831 = {
			change_culture = bloodtooth_ogre
			change_religion = ROOT
			change_province_name = "Khrejolba"
			rename_capital = "Khrejolba"
			add_base_tax = 2
			add_base_production = 2
			add_base_manpower = 2
		}
		#Lower Castonath
		832 = {
			change_culture = bloodtooth_ogre
			change_religion = ROOT
			change_province_name = "Avlurobla"
			rename_capital = "Avlurobla"
			add_base_tax = 2
			add_base_production = 2
			add_base_manpower = 2
		}		
		custom_tooltip = ogre_new_capital
		hidden_effect = {
			5003 = {
				remove_province_modifier = ogrehome
				change_province_name = "Gamve Skurkokli"
				rename_capital = "Gamve Skurkokli"
			}
		}
		castonath_area = {
			add_province_modifier = {
				name = skurkokli_new_ogrehome
				duration = -1
			}
		}
	}
	#Mil 1
	option = {
		name = ogre.18.a
		ai_chance = { factor = 100 }
		trigger = { 
			has_country_flag = warcap_mission_1
		}		
		#North Castonath
		833 = {
			move_capital_effect = yes 
			add_province_modifier = {
				name = warcap_mission_1
				duration = -1
			}
			change_culture = bloodtooth_ogre
			change_religion = ROOT
			change_province_name = "Loethrgolba"
			rename_capital = "Loethrgolba"
			add_base_tax = 2
			add_base_production = 2
			add_base_manpower = 2
		}
		#South Castonath
		831 = {
			change_culture = bloodtooth_ogre
			change_religion = ROOT
			change_province_name = "Khrejolba"
			rename_capital = "Khrejolba"
			add_base_tax = 2
			add_base_production = 2
			add_base_manpower = 2
		}
		#Lower Castonath
		832 = {
			change_culture = bloodtooth_ogre
			change_religion = ROOT
			change_province_name = "Avlurobla"
			rename_capital = "Avlurobla"
			add_base_tax = 2
			add_base_production = 2
			add_base_manpower = 2
		}		
		custom_tooltip = ogre_new_capital
		hidden_effect = {
			5003 = {
				remove_province_modifier = ogrehome
				remove_province_modifier = warcap_mission_1
				remove_province_modifier = ecocap_mission_1
				remove_province_modifier = ecocap_mission_2
				remove_province_modifier = ecocap_mission_3
				change_province_name = "Gamve Skurkokli"
				rename_capital = "Gamve Skurkokli"
			}
		}
		castonath_area = {
			add_province_modifier = {
				name = skurkokli_new_ogrehome
				duration = -1
			}
		}
	}
	#Mil 2
	option = {
		name = ogre.18.a
		ai_chance = { factor = 100 }
		trigger = { 
			has_country_flag = warcap_mission_2
		}
				
		#North Castonath
		833 = {
			move_capital_effect = yes 
			add_province_modifier = {
				name = warcap_mission_2
				duration = -1
			}
			change_culture = bloodtooth_ogre
			change_religion = ROOT
			change_province_name = "Loethrgolba"
			rename_capital = "Loethrgolba"
			add_base_tax = 2
			add_base_production = 2
			add_base_manpower = 2
		}
		#South Castonath
		831 = {
			change_culture = bloodtooth_ogre
			change_religion = ROOT
			change_province_name = "Khrejolba"
			rename_capital = "Khrejolba"
			add_base_tax = 2
			add_base_production = 2
			add_base_manpower = 2
		}
		#Lower Castonath
		832 = {
			change_culture = bloodtooth_ogre
			change_religion = ROOT
			change_province_name = "Avlurobla"
			rename_capital = "Avlurobla"
			add_base_tax = 2
			add_base_production = 2
			add_base_manpower = 2
		}		
		custom_tooltip = ogre_new_capital
		hidden_effect = {
			5003 = {
				remove_province_modifier = ogrehome
				remove_province_modifier = warcap_mission_2
				remove_province_modifier = ecocap_mission_1
				remove_province_modifier = ecocap_mission_2
				remove_province_modifier = ecocap_mission_3
				change_province_name = "Gamve Skurkokli"
				rename_capital = "Gamve Skurkokli"
			}
		}
		castonath_area = {
			add_province_modifier = {
				name = skurkokli_new_ogrehome
				duration = -1
			}
		}
	}
	#Mil 3
	option = {
		name = ogre.18.a
		ai_chance = { factor = 100 }
		trigger = { 
			has_country_flag = warcap_mission_3
		}
				
		#North Castonath
		833 = {
			move_capital_effect = yes 
			add_province_modifier = {
				name = warcap_mission_3
				duration = -1
			}
			change_culture = bloodtooth_ogre
			change_religion = ROOT
			change_province_name = "Loethrgolba"
			rename_capital = "Loethrgolba"
			add_base_tax = 2
			add_base_production = 2
			add_base_manpower = 2
		}
		#South Castonath
		831 = {
			change_culture = bloodtooth_ogre
			change_religion = ROOT
			change_province_name = "Khrejolba"
			rename_capital = "Khrejolba"
			add_base_tax = 2
			add_base_production = 2
			add_base_manpower = 2
		}
		#Lower Castonath
		832 = {
			change_culture = bloodtooth_ogre
			change_religion = ROOT
			change_province_name = "Avlurobla"
			rename_capital = "Avlurobla"
			add_base_tax = 2
			add_base_production = 2
			add_base_manpower = 2
		}
		custom_tooltip = ogre_new_capital
		hidden_effect = {
			5003 = {
				remove_province_modifier = ogrehome
				remove_province_modifier = warcap_mission_3
				remove_province_modifier = ecocap_mission_1
				remove_province_modifier = ecocap_mission_2
				remove_province_modifier = ecocap_mission_3
				change_province_name = "Gamve Skurkokli"
				rename_capital = "Gamve Skurkokli"
			}
		}
		castonath_area = {
			add_province_modifier = {
				name = skurkokli_new_ogrehome
				duration = -1
			}
		}
	}
}

#Resettle in Escann
country_event = {
	id = ogre.19
	title = ogre.19.t
	picture = CITY_DEVELOPMENT_eventPicture
	desc = ogre.19.d
	
	is_triggered_only = yes
	fire_only_once = yes
	
	trigger = {
		always = yes
	}

	option = {
		name = ogre.19.a
		ai_chance = { factor = 100 }
		add_splendor = 500
		if = {
			limit = { has_country_modifier = skurkokli_no_supplies }
			remove_country_modifier = skurkokli_no_supplies
		}
		if = {
			limit = { has_country_modifier = skurkokli_lake_fed_bounty }
			remove_country_modifier = skurkokli_lake_fed_bounty
		}
		add_country_modifier = {
			name = skurkokli_ogre_capacity
			duration = -1
		}
		hidden_effect = {
			add_country_modifier = {
				name = skurkokli_consumed_the_land
				duration = 1825 #5 years
			}
		}
	}
}

#Consume Lake Fed
country_event = {
	id = ogre.20
	title = ogre.20.t
	picture = SIEGE_eventPicture
	desc = ogre.20.d
	
	is_triggered_only = yes
	fire_only_once = yes
	
	trigger = {
		always = yes
	}
	
	#Yummy lake fed!
	option = {
		name = ogre.20.a
		ai_chance = { factor = 100 }
		add_power_projection = {
			type = mission_rewards_power_projection
			amount = 50
		}
		add_prestige = 50
		add_treasury = 2500
		#Lake Fed Bounty gets removed when settling in Escann
		add_country_modifier = {
			name = skurkokli_lake_fed_bounty
			duration = -1
		}
		hidden_effect = {
			set_country_flag = horde_marches_west
			set_country_flag = fed_war_completed
			swap_non_generic_missions = yes	
			tanning_valley_area = {
				limit = { NOT = { owned_by = ROOT } }
				discover_country = ROOT
			}
			upper_logr_area = {
				limit = { NOT = { owned_by = ROOT } }
				discover_country = ROOT
			}
			lower_logr_area = {
				limit = { NOT = { owned_by = ROOT } }
				discover_country = ROOT
			}
			middle_logr_area = {
				limit = { NOT = { owned_by = ROOT } }
				discover_country = ROOT
			}	
			hidden_respite_area = {
				limit = { NOT = { owned_by = ROOT } }
				discover_country = ROOT
			}	
			the_copperwood_area = {
				limit = { NOT = { owned_by = ROOT } }
				discover_country = ROOT
			}
			northern_giants_tears_area = {
				limit = { NOT = { owned_by = ROOT } }
				discover_country = ROOT
			}			
			southern_giants_tears_area = {
				limit = { NOT = { owned_by = ROOT } }
				discover_country = ROOT
			}
			vrorenmarch_area = {
				limit = { NOT = { owned_by = ROOT } }
				discover_country = ROOT
			}
			vrorenwall_area = {
				limit = { NOT = { owned_by = ROOT } }
				discover_country = ROOT
			}
			742 = {
				if = {
					limit = { NOT = { owned_by = ROOT } }
					discover_country = ROOT
				}
			}
			741 = {
				if = {
					limit = { NOT = { owned_by = ROOT } }
					discover_country = ROOT
				}
			}
		}
		custom_tooltip = ogre_lake_fed_supplies 
	}
}

#Consume Cannor
country_event = {
	id = ogre.21
	title = ogre.21.t
	picture = COUNTRY_COLLAPSE_eventPicture
	desc = ogre.21.d
	
	is_triggered_only = yes
	fire_only_once = yes
	
	trigger = {
		always = yes
	}
	
	option = {
		name = ogre.21.a
		ai_chance = { factor = 100 }
		add_power_projection = {
			type = mission_rewards_power_projection
			amount = 100
		}
		add_prestige = 100
		add_splendor = 1000
		add_treasury = 5000
		add_country_modifier = {
			name = skurkokli_doom_of_cannor
			duration = -1
		}
		hidden_effect = {
			add_country_modifier = {
				name = skurkokli_consumed_the_land
				duration = 1825 #5 years
			}
		}
	}
}

#rancor grants Goldlord title
country_event = {
	id = ogre.22
	title = ogre.22.t
	picture = TRADE_GOODS_METALS_AND_MINING_EQUIPENT_eventPicture
	desc = ogre.22.d
	
	is_triggered_only = yes
	fire_only_once = yes
	
	trigger = {
		always = yes
	}
	
	option = {
		name = ogre.22.a
		ai_chance = { factor = 100 }
		5021 = {
			add_base_tax = 1
			add_base_production = 2
			add_local_autonomy = -30
			add_building = fort_15th
			change_trade_goods = gold
		}
	}
}

#Additional rancor Events!--------------------------------------
#rancor Comes
country_event = {
	id = ogre.23
	title = ogre.23.t
	picture = BATTLE_eventPicture
	desc = ogre.23.d
	
	fire_only_once = yes
	
	trigger = {
		tag = J47
		capital = 5003 
	}

	mean_time_to_happen = {
		months = 12
	}
	
	immediate = { set_country_flag = rancor_comes }
	
	#rancor raising hell
	option = {
		name = ogre.23.a
		ai_chance = { factor = 100 }
		add_stability = -2
	}
}

#Consume the Reach
country_event = {
	id = ogre.24
	title = ogre.24.t
	picture = VILLAGE_BURNING_eventPicture
	desc = ogre.24.d
	
	is_triggered_only = yes
	fire_only_once = yes
	
	trigger = {
		always = yes
	}
	
	option = {
		name = ogre.24.a
		ai_chance = { factor = 100 }
		add_power_projection = {
			type = mission_rewards_power_projection
			amount = 50
		}
		add_prestige = 50
		add_treasury = 2500
		add_country_modifier = {
			name = skurkokli_reach_reckoning
			duration = -1
		}
		hidden_effect = {
			add_country_modifier = {
				name = skurkokli_consumed_the_land
				duration = 1825 #5 years
			}
		}
	}
}

#rancor is killed
country_event = {
	id = ogre.25
	title = ogre.25.t
	picture = ASSASSINATION_eventPicture
	desc = {
		desc = ogre.25.d.war
		trigger = {
			is_at_war = yes
		}
	}
	desc = {
		desc = ogre.25.d.peace
		trigger = {
			is_at_war = no
		}
	}
	
	is_triggered_only = yes
		
	trigger = {
		tag = J47
		has_country_flag = rancor_cannot_die
		NOT = { ruler_is_immortal = yes }
	}
	
	option = {
		name = ogre.25.a
		hidden_effect = {
			define_ruler = {
				name = "Warring Chieftains"
				dynasty = "of Skurkokli"
				claim = 20
				adm = 0
				dip = 0
				mil = 0
				regency = yes
				hide_skills = yes
			}
		}
		add_country_modifier = {
			name = skurkokli_rancor_dies
			duration = -1
		}
		set_country_flag = rancor_returns
		clr_country_flag = rancor_cannot_die
	}
}

#rancor returns
country_event = {
	id = ogre.26
	title = ogre.26.t
	picture = EP_MAORI_HAKA_eventPicture
	desc = ogre.26.d
		
	trigger = {
		tag = J47
		has_country_flag = rancor_returns
	}
	
	mean_time_to_happen = {
		months = 30
	}	
	
	option = {
		name = ogre.26.a
		add_stability = 1
		define_ruler = {
			name = "Rancor"
			dynasty = "Bloodtooth"
			claim = 100
			religion = ROOT
			culture = bloodtooth_ogre
			adm = 6
			dip = 6 
			mil = 6
			age = 25
		}
		define_ruler_to_general = {
			fire = 1
			shock = 7
			manuever = 6
			siege = 5
			trait = hardy_warrior_personality
		}
		hidden_effect = {
			add_ruler_personality = conqueror_personality
			add_ruler_personality = inspiring_leader_personality
			add_ruler_personality = immortal_personality
			set_ruler_flag = set_immortality
			set_ruler_flag = is_rancor
		}
		add_ruler_modifier = {
			name = skurkokli_gorger_lord
		}
		remove_country_modifier = skurkokli_rancor_dies
		set_country_flag = rancor_cannot_die
		clr_country_flag = rancor_returns
	}
}

#Consume the Northmen
country_event = {
	id = ogre.27
	title = ogre.27.t
	picture = BARBARY_PIRATES_eventPicture
	desc = ogre.27.d
	
	is_triggered_only = yes
	fire_only_once = yes
	
	trigger = {
		always = yes
	}
	
	#Eat the Vikings!
	option = {
		name = ogre.27.a
		ai_chance = { factor = 100 }
		add_power_projection = {
			type = mission_rewards_power_projection
			amount = 25
		}
		add_prestige = 25
		add_treasury = 1000
		add_country_modifier = {
			name = skurkokli_feast_fleet
			duration = -1
		}
		hidden_effect = {
			add_country_modifier = {
				name = skurkokli_consumed_the_land
				duration = 1825 #5 years
			}
			set_country_flag = ravage_reavers_completed
			swap_non_generic_missions = yes	
		}
	}
}

#Consume Dostanor
country_event = {
	id = ogre.28
	title = ogre.28.t
	picture = REVOLT_HUNGARIAN_eventPicture
	desc = ogre.28.d
	
	is_triggered_only = yes
	fire_only_once = yes
	
	trigger = {
		always = yes
	}

	#Nom the Vampires
	option = {
		name = ogre.28.a
		ai_chance = { factor = 100 }
		add_power_projection = {
			type = mission_rewards_power_projection
			amount = 50
		}
		add_prestige = 50
		add_treasury = 2500
		add_country_modifier = {
			name = skurkokli_vampire_war_veterans
			duration = 10950 #30 years
		}
		add_country_modifier = {
			name = skurkokli_siege_engineers_2
			duration = -1
		}
		hidden_effect = {
			add_country_modifier = {
				name = skurkokli_consumed_the_land
				duration = 1825 #5 years
			}
		}
	}
}

#Ogrekind United
country_event = {
	id = ogre.29
	title = ogre.29.t
	picture = MILITARY_CAMP_eventPicture
	desc = ogre.29.d
	
	is_triggered_only = yes
	fire_only_once = yes
	
	trigger = {
		always = yes
	}

	option = {
		name = ogre.29.a
		ai_chance = { factor = 100 }
		add_prestige = 25
		add_country_modifier = {
			name = skurkokli_ogre_manpower_4
			duration = -1
		}
		hidden_effect = {
			remove_country_modifier = skurkokli_ogre_manpower_3
		}
	}
}

#Go west early or fight lake fed
country_event = {
	id = ogre.30
	title = ogre.30.t
	desc = ogre.30.d
	picture = GOOD_WITH_MONARCH_eventPicture
	
	is_triggered_only = yes
	fire_only_once = yes
	
	trigger = {
		always = yes
	}
	
	#March West
	option = {
		name = ogre.30.a
		ai_chance = { factor = 100 }
		hidden_effect = {
			set_country_flag = horde_marches_west
			swap_non_generic_missions = yes	
			tanning_valley_area = {
				limit = { NOT = { owned_by = ROOT } }
				discover_country = ROOT
			}
			upper_logr_area = {
				limit = { NOT = { owned_by = ROOT } }
				discover_country = ROOT
			}
			lower_logr_area = {
				limit = { NOT = { owned_by = ROOT } }
				discover_country = ROOT
			}
			middle_logr_area = {
				limit = { NOT = { owned_by = ROOT } }
				discover_country = ROOT
			}	
			hidden_respite_area = {
				limit = { NOT = { owned_by = ROOT } }
				discover_country = ROOT
			}	
			the_copperwood_area = {
				limit = { NOT = { owned_by = ROOT } }
				discover_country = ROOT
			}
			northern_giants_tears_area = {
				limit = { NOT = { owned_by = ROOT } }
				discover_country = ROOT
			}			
			southern_giants_tears_area = {
				limit = { NOT = { owned_by = ROOT } }
				discover_country = ROOT
			}
			vrorenmarch_area = {
				limit = { NOT = { owned_by = ROOT } }
				discover_country = ROOT
			}
			vrorenwall_area = {
				limit = { NOT = { owned_by = ROOT } }
				discover_country = ROOT
			}
			742 = {
				if = {
					limit = { NOT = { owned_by = ROOT } }
					discover_country = ROOT
				}
			}
			741 = {
				if = {
					limit = { NOT = { owned_by = ROOT } }
					discover_country = ROOT
				}
			}
		}
		custom_tooltip = ogre_no_supplies
		add_country_modifier = {
				name = skurkokli_no_supplies
				duration = -1 #goes away when you complete A New Home mission
		}
		set_country_flag = no_supplies
	}
	
	#War with Fed
	option = {
		name = ogre.30.b
		ai_chance = { factor = 100 }
		hidden_effect = {
			set_country_flag = war_against_fed
			swap_non_generic_missions = yes
		}
		custom_tooltip = ogre_yes_supplies
		yyl_moista_region = {
			limit = {
				NOT = { is_core = ROOT }
				NOT = { owned_by = ROOT }
			}
			add_permanent_claim = ROOT
		}
	}
}

#Gorger Lord Becomes Prophet
country_event = {
	id = ogre.31
	title = ogre.31.t
	picture = RELIGION_eventPicture
	desc = ogre.31.d

	is_triggered_only = yes
	fire_only_once = yes
	
	trigger = {
		tag = J47
		NOT = { religion = feast_of_the_gods }
	}

	mean_time_to_happen = {
		days = 7
	}

	option = {
		name = ogre.31.a
		ai_chance = { factor = 100 }
	}
}

#Gorger Lord Influence
country_event = {
	id = ogre.32
	title = ogre.32.t
	picture = BATTLE_eventPicture
	desc = ogre.32.d

	fire_only_once = yes
	
	trigger = {
		tag = J47
		has_ruler_flag = is_rancor
	}
	
	mean_time_to_happen = {
		days = 30
	}

	option = {
		name = ogre.32.a
		ai_chance = { factor = 100 }
		add_country_modifier = {
			name = skurkokli_gorger_lord_influence_1
			duration = -1
		}
		hidden_effect = {
			set_country_flag = gorger_lord_influence_level_1
			swap_non_generic_missions = yes
			every_country = {
				limit = {
					tag = J47
				}
				set_variable = {
					which = nbCharge
					value = 0
				}
			}
		}
	}
}